…
    ## Rows: 43 Columns: 4
    ## ── Column specification ────────────────────────────────────────────────────────
    ## Delimiter: ","
    ## dbl (4): year, new_york_city_population, nyc_consumption_million_gallons_per...
    ## 
    ## ℹ Use `spec()` to retrieve the full column specification for this data.
    ## ℹ Specify the column types or set `show_col_types = FALSE` to quiet this message.

``` r
nyc_water
```

    ## # A tibble: 43 × 4
    ##     year new_york_city_population nyc_consumption_million_gallons_per_…¹ per_c…²
    ##    <dbl>                    <dbl>                                  <dbl>   <dbl>
    ##  1  1979                  7102100                                   1512     213
    ##  2  1980                  7071639                                   1506     213
    ##  3  1981                  7089241                                   1309     185
    ##  4  1982                  7109105                                   1382     194
    ##  5  1983                  7181224                                   1424     198
    ##  6  1984                  7234514                                   1465     203
    ##  7  1985                  7274054                                   1326     182
    ##  8  1986                  7319246                                   1351     185
    ##  9  1987                  7342476                                   1447     197
    ## 10  1988                  7353719                                   1484     202
    ## # … with 33 more rows, and abbreviated variable names
    ## #   ¹​nyc_consumption_million_gallons_per_day,
    ## #   ²​per_capita_gallons_per_person_per_day

Alternative is importing it as a JSON file (however, that approach needs
a bit more cleaning and hence a bit more complicated)

``` r
nyc_water_2 = 
  GET("https://data.cityofnewyork.us/resource/ia2d-e54m.json") %>% 
  content("text") %>%
  jsonlite::fromJSON() %>%
  as_tibble()

nyc_water_2
```

    ## # A tibble: 43 × 4
    ##    year  new_york_city_population nyc_consumption_million_gallons_per_…¹ per_c…²
    ##    <chr> <chr>                    <chr>                                  <chr>  
    ##  1 1979  7102100                  1512                                   213    
    ##  2 1980  7071639                  1506                                   213    
    ##  3 1981  7089241                  1309                                   185    
    ##  4 1982  7109105                  1382                                   194    
    ##  5 1983  7181224                  1424                                   198    
    ##  6 1984  7234514                  1465                                   203    
    ##  7 1985  7274054                  1326                                   182    
    ##  8 1986  7319246                  1351                                   185    
    ##  9 1987  7342476                  1447                                   197    
    ## 10 1988  7353719                  1484                                   202    
    ## # … with 33 more rows, and abbreviated variable names
    ## #   ¹​nyc_consumption_million_gallons_per_day,
    ## #   ²​per_capita_gallons_per_person_per_day
…
    ## Rows: 5000 Columns: 23
    ## ── Column specification ────────────────────────────────────────────────────────
    ## Delimiter: ","
    ## chr (16): locationabbr, locationdesc, class, topic, question, response, data...
    ## dbl  (6): year, sample_size, data_value, confidence_limit_low, confidence_li...
    ## lgl  (1): locationid
    ## 
    ## ℹ Use `spec()` to retrieve the full column specification for this data.
    ## ℹ Specify the column types or set `show_col_types = FALSE` to quiet this message.

``` r
brfss_2010
```

    ## # A tibble: 5,000 × 23
    ##     year locationa…¹ locat…² class topic quest…³ respo…⁴ sampl…⁵ data_…⁶ confi…⁷
    ##    <dbl> <chr>       <chr>   <chr> <chr> <chr>   <chr>     <dbl>   <dbl>   <dbl>
    ##  1  2010 AL          AL - M… Heal… Over… How is… Excell…      91    15.6    11  
    ##  2  2010 AL          AL - J… Heal… Over… How is… Excell…      94    18.9    14.1
    ##  3  2010 AL          AL - T… Heal… Over… How is… Excell…      58    20.8    14.1
    ##  4  2010 AL          AL - J… Heal… Over… How is… Very g…     148    30      24.9
    ##  5  2010 AL          AL - T… Heal… Over… How is… Very g…     109    29.5    23.2
    ##  6  2010 AL          AL - M… Heal… Over… How is… Very g…     177    31.3    26  
    ##  7  2010 AL          AL - J… Heal… Over… How is… Good        208    33.1    28.2
    ##  8  2010 AL          AL - M… Heal… Over… How is… Good        224    31.2    26.1
    ##  9  2010 AL          AL - T… Heal… Over… How is… Good        171    33.8    27.7
    ## 10  2010 AL          AL - M… Heal… Over… How is… Fair        120    15.5    11.7
    ## # … with 4,990 more rows, 13 more variables: confidence_limit_high <dbl>,
    ## #   display_order <dbl>, data_value_unit <chr>, data_value_type <chr>,
    ## #   data_value_footnote_symbol <chr>, data_value_footnote <chr>,
    ## #   datasource <chr>, classid <chr>, topicid <chr>, locationid <lgl>,
    ## #   questionid <chr>, respid <chr>, geolocation <chr>, and abbreviated variable
    ## #   names ¹​locationabbr, ²​locationdesc, ³​question, ⁴​response, ⁵​sample_size,
    ## #   ⁶​data_value, ⁷​confidence_limit_low
…
